,prefix,price
0,6109,0.73
1,9417,1.06
2,9125,0.97
3,3833,1.09
4,215,1.15
5,1472,0.93
6,1749,0.75
7,4911,0.55
8,6364,0.6
9,4931,0.96
10,7117,1.02
11,7196,0.87
12,9912,1.18
13,5971,1.03
14,2982,0.68
15,184,0.87
16,5316,0.83
17,4089,1.2
18,5821,0.87
19,288,0.88
20,3019,0.69
21,527,1.38
22,2937,1.38
23,1660,0.91
24,4292,0.83
25,9647,0.94
26,7712,1.23
27,703,0.95
28,7420,1.39
29,2468,0.72
30,427,0.99
31,6617,0.59
32,2176,1.06
33,6179,1.05
34,2144,0.74
35,1522,1.29
36,9065,0.78
37,9135,0.6
38,1798,0.57
39,7131,1.28
40,4332,0.87
41,9722,0.57
42,5276,0.84
43,8261,1.01
44,9512,1.06
45,1201,1.33
46,9274,1.21
47,913,1.37
48,9402,0.8
49,2831,1.08
50,640,0.91
51,6562,1.15
52,6197,0.74
53,6553,1.1
54,2304,0.81
55,856,0.57
56,9047,0.8
57,4913,0.65
58,1632,0.91
59,9032,0.79
60,9433,1.31
61,5037,0.96
62,8895,0.87
63,6284,1.33
64,5016,0.74
65,2100,0.82
66,4313,0.96
67,6939,1.23
68,9495,0.91
69,8098,1.35
70,5662,1.25
71,4668,0.6
72,4715,0.97
73,1165,1.25
74,8570,0.99
75,6740,0.56
76,9473,1.34
77,8159,0.97
78,8289,0.71
79,1017,0.94
80,3105,1.01
81,832,1.07
82,2595,0.69
83,7525,1.29
84,1535,0.67
85,2671,0.56
86,6810,1.01
87,9743,1.05
88,3275,0.91
89,8156,1.39
90,1329,0.8
91,6328,1.03
92,9736,0.53
93,2352,1.38
94,9325,1.06
95,1700,1.17
96,6453,1.26
97,6637,1.18
98,1787,0.94
99,8772,0.56
