,prefix,price
0,903,1.11
1,2116,0.87
2,3058,1.11
3,4160,1.09
4,4921,0.54
5,7385,0.92
6,1308,0.67
7,2453,0.92
8,503,1.24
9,6444,1.22
10,9123,1.08
11,1353,1.0
12,4576,0.61
13,6139,1.08
14,4961,1.02
15,2385,0.91
16,1427,0.56
17,2645,0.89
18,5710,0.55
19,3832,0.98
20,2093,0.86
21,4340,0.93
22,9294,0.65
23,849,0.5
24,8202,0.78
25,5781,0.73
26,8383,1.03
27,1283,0.53
28,2142,1.16
29,5348,0.77
30,5067,1.0
31,8762,0.86
32,3161,0.93
33,2789,1.16
34,9978,0.53
35,4372,0.84
36,6351,1.34
37,6493,0.75
38,1595,1.1
39,5279,0.64
40,1661,0.97
41,5216,1.25
42,1669,1.1
43,7196,0.52
44,1444,0.53
45,370,0.55
46,2530,0.56
47,8231,1.2
48,1934,0.76
49,2301,1.3
50,1919,0.78
51,3257,0.72
52,9394,1.01
53,1187,1.04
54,7930,0.92
55,8185,1.32
56,4298,1.27
57,6187,0.67
58,9700,0.93
59,2812,0.84
60,5223,1.08
61,5853,1.12
62,6153,1.35
63,4984,1.24
64,194,1.33
65,388,0.96
66,8612,0.77
67,515,1.01
68,4076,0.77
69,9252,0.53
70,2071,0.89
71,879,1.07
72,4325,0.82
73,431,0.71
74,2598,0.75
75,9315,0.62
76,5834,1.3
77,8711,1.31
78,9603,1.23
79,6277,0.86
80,905,1.38
81,5122,0.5
82,3719,1.37
83,9107,1.22
84,3872,0.82
85,6957,0.61
86,2541,0.64
87,8131,1.08
88,9017,0.8
89,3531,0.6
90,4746,0.68
91,9783,1.0
92,9361,1.35
93,1141,1.08
94,8759,0.89
95,3926,0.51
96,618,1.08
97,9293,1.34
98,7624,1.2
99,1137,1.18
