,prefix,price
0,3195,0.79
1,2066,0.58
2,3139,0.72
3,3277,0.99
4,8344,1.31
5,1912,0.91
6,8973,0.99
7,4737,1.35
8,7769,1.01
9,3823,0.75
10,7588,0.94
11,8352,1.0
12,8368,0.82
13,2114,1.29
14,1498,1.1
15,9912,0.64
16,7989,0.91
17,4480,1.3
18,6547,0.6
19,6606,0.75
20,453,0.71
21,3141,1.18
22,1468,0.68
23,5688,1.33
24,799,0.87
25,5344,1.26
26,2731,1.17
27,2697,1.17
28,4377,0.86
29,8734,1.11
30,1396,0.87
31,1211,0.85
32,3986,0.81
33,5614,1.08
34,3979,1.05
35,5394,0.97
36,6000,1.05
37,9841,1.19
38,4395,1.17
39,8641,0.9
40,378,0.5
41,998,0.89
42,7029,0.99
43,8343,0.73
44,818,0.8
45,1638,1.29
46,914,0.58
47,5020,1.33
48,5570,0.74
49,1487,1.16
50,9082,1.01
51,9293,0.87
52,4163,0.6
53,4422,0.89
54,249,0.94
55,961,1.19
56,6688,0.87
57,8837,0.9
58,60,0.58
59,8738,0.62
60,5991,1.25
61,1780,0.97
62,2718,1.27
63,2879,0.82
64,6389,0.87
65,5107,0.99
66,9553,1.29
67,6629,1.33
68,1844,0.67
69,8888,1.31
70,6420,0.8
71,2723,0.51
72,3745,1.1
73,7809,1.29
74,2791,1.06
75,860,1.22
76,3733,1.31
77,587,0.72
78,419,0.96
79,4747,0.61
80,7087,0.69
81,8795,0.89
82,5178,0.65
83,9130,0.53
84,5432,0.96
85,1836,0.56
86,6454,0.85
87,3763,0.75
88,8927,0.97
89,4947,1.16
90,1605,0.53
91,5550,1.26
92,2625,0.65
93,6528,1.1
94,6608,1.13
95,7675,1.01
96,576,0.61
97,3275,0.98
98,4266,1.12
99,1476,1.23
