,prefix,price
0,7207,1.36
1,8451,1.39
2,9865,1.28
3,1667,0.85
4,6962,0.64
5,6760,1.13
6,1320,0.85
7,3548,0.72
8,6313,0.74
9,3686,0.76
10,394,1.1
11,7222,0.63
12,4547,1.14
13,7467,1.26
14,7223,0.57
15,7431,1.2
16,7772,1.19
17,9539,0.78
18,8453,1.13
19,4157,0.85
20,3103,1.14
21,5356,1.02
22,8216,0.85
23,7535,0.97
24,5398,0.58
25,5984,0.83
26,4260,0.53
27,4478,0.8
28,8147,0.73
29,3396,1.24
30,3943,0.59
31,3192,0.59
32,6795,0.6
33,5477,0.76
34,7011,1.29
35,9525,0.8
36,4230,0.64
37,2260,1.36
38,5526,1.18
39,5147,1.31
40,6452,0.53
41,834,0.8
42,6400,0.53
43,4690,1.38
44,747,0.92
45,9480,0.51
46,2183,0.77
47,9121,0.83
48,1107,1.23
49,3468,1.01
50,8377,0.86
51,4933,0.94
52,1966,1.37
53,6473,1.38
54,129,1.14
55,7402,1.19
56,1240,0.56
57,7839,0.91
58,9647,0.8
59,7067,1.35
60,9870,1.35
61,5609,1.16
62,8674,0.68
63,9543,1.33
64,6586,1.18
65,947,0.75
66,7062,0.51
67,8138,1.29
68,6379,0.51
69,1669,1.1
70,1316,1.16
71,7667,1.28
72,4975,1.24
73,7970,0.64
74,8328,1.29
75,6792,0.8
76,5454,1.04
77,9053,0.64
78,5277,1.11
79,7926,1.38
80,6974,0.94
81,2723,0.84
82,6639,1.32
83,8167,1.18
84,5278,0.55
85,8578,0.67
86,2803,0.64
87,8533,0.9
88,3493,0.61
89,7917,1.02
90,4686,0.56
91,2912,0.94
92,2142,1.05
93,1518,0.82
94,3032,0.83
95,2889,0.6
96,3731,0.8
97,3962,1.07
98,9891,1.34
99,3613,0.78
