,prefix,price
0,5863,0.79
1,5146,1.24
2,883,0.59
3,6979,0.83
4,4656,0.76
5,4974,0.99
6,5307,0.81
7,626,0.95
8,354,0.52
9,1696,1.3
10,1436,1.14
11,1414,1.09
12,9954,1.05
13,1335,1.11
14,9508,1.09
15,2664,0.65
16,1999,0.67
17,7116,0.71
18,1561,1.32
19,7089,0.58
20,6108,0.72
21,3136,0.67
22,6210,0.51
23,1172,1.16
24,7228,1.01
25,3422,0.87
26,1157,0.93
27,5956,0.97
28,865,1.1
29,6397,0.89
30,8751,0.58
31,1060,0.61
32,5218,1.22
33,8182,1.0
34,4008,1.05
35,8591,0.69
36,7739,1.36
37,7905,1.29
38,8530,1.18
39,205,1.13
40,6439,0.67
41,5834,0.94
42,7560,0.92
43,9248,0.77
44,9055,1.33
45,6523,1.07
46,7667,0.82
47,632,1.37
48,8739,1.33
49,8709,1.19
50,8748,0.85
51,4684,0.69
52,5182,0.66
53,7598,1.04
54,7892,1.21
55,5809,1.12
56,2696,0.63
57,9181,1.23
58,133,1.37
59,8148,0.64
60,7780,0.89
61,9132,0.82
62,1251,1.08
63,5504,1.11
64,5355,0.63
65,7656,1.37
66,9300,0.89
67,1007,0.67
68,8471,0.55
69,8783,0.7
70,4722,0.78
71,1087,0.91
72,6089,1.15
73,3543,1.21
74,6178,1.28
75,7753,1.13
76,8392,0.57
77,7929,0.72
78,2203,0.79
79,3458,0.95
80,978,0.73
81,3525,0.89
82,3050,0.94
83,5631,1.07
84,2981,1.13
85,4682,0.86
86,2659,0.54
87,6949,1.29
88,4073,1.01
89,7828,1.35
90,1594,1.01
91,52,0.57
92,7469,1.12
93,5370,1.2
94,6780,0.71
95,7249,1.06
96,579,0.68
97,9477,1.0
98,8699,1.22
99,7193,0.81
