,prefix,price
0,7994,1.25
1,6703,1.28
2,8173,0.89
3,8180,0.62
4,4760,1.07
5,176,0.73
6,1361,1.35
7,2514,1.25
8,5291,0.57
9,2482,0.73
10,332,1.22
11,4174,1.32
12,7706,0.79
13,3991,1.09
14,9865,0.53
15,3168,0.67
16,4699,0.8
17,5783,0.82
18,9875,0.65
19,3432,1.33
20,1106,0.82
21,3056,1.17
22,8756,0.79
23,4952,0.58
24,7775,0.51
25,7998,0.9
26,9447,0.82
27,6836,0.57
28,6824,1.16
29,2493,0.93
30,648,0.51
31,5721,0.54
32,210,0.9
33,7902,1.28
34,5886,0.79
35,4772,0.89
36,6544,0.74
37,1155,0.65
38,5972,0.98
39,6220,1.39
40,6202,0.57
41,9129,1.21
42,3238,1.07
43,5185,1.15
44,7853,0.85
45,8977,0.69
46,275,0.51
47,780,0.51
48,3746,0.73
49,8006,0.97
50,3793,1.24
51,8290,0.96
52,5263,0.74
53,5742,1.37
54,3566,1.11
55,3926,1.37
56,5856,1.2
57,6875,1.08
58,7772,0.95
59,5965,1.11
60,8162,0.5
61,7028,0.69
62,3287,0.68
63,3825,1.04
64,336,0.66
65,5642,0.83
66,3009,1.12
67,9419,1.16
68,6041,0.92
69,87,0.94
70,250,1.0
71,326,1.14
72,5752,1.32
73,5993,0.98
74,2067,0.73
75,4645,0.73
76,9691,0.5
77,2481,0.93
78,6033,0.88
79,3383,0.84
80,8750,1.29
81,8073,0.87
82,2238,0.87
83,3409,1.06
84,6360,1.33
85,6994,1.36
86,5689,0.77
87,9592,1.13
88,7937,0.87
89,6510,0.68
90,8067,1.34
91,6251,1.38
92,531,0.65
93,4879,0.5
94,2171,1.14
95,8392,1.28
96,2148,1.17
97,3467,0.97
98,6652,1.22
99,2162,0.71
