,prefix,price
0,6233,1.2
1,2677,0.62
2,6641,0.81
3,3311,1.04
4,691,0.58
5,1321,1.39
6,9037,0.63
7,7984,1.26
8,8293,1.1
9,63,0.98
10,1392,0.83
11,1597,0.67
12,4541,1.03
13,5171,1.14
14,8415,1.11
15,5882,0.77
16,3549,1.09
17,6428,0.72
18,7955,0.54
19,8161,0.65
20,1082,1.0
21,5507,0.84
22,6741,0.84
23,5839,0.68
24,848,0.99
25,9333,1.01
26,9630,0.86
27,4766,1.23
28,4971,0.97
29,9826,0.5
30,5609,1.27
31,4318,0.79
32,9765,1.35
33,4017,1.25
34,4308,0.62
35,3090,1.13
36,4790,1.18
37,2480,1.18
38,3100,1.28
39,7994,0.77
40,5148,0.96
41,192,0.79
42,3008,0.68
43,1154,1.18
44,78,1.05
45,9752,0.78
46,7809,0.74
47,2158,1.12
48,806,0.69
49,9542,1.29
50,5313,1.1
51,3836,1.2
52,7999,0.9
53,8312,0.78
54,5236,0.96
55,5634,1.05
56,3553,0.76
57,9432,0.5
58,7233,1.27
59,5118,0.6
60,4649,1.33
61,9988,0.75
62,3027,0.95
63,1170,0.71
64,8815,0.69
65,505,0.64
66,2424,1.04
67,8817,1.36
68,3209,1.22
69,9447,0.5
70,9154,0.95
71,8449,1.08
72,6364,0.88
73,8563,0.55
74,2058,0.9
75,1478,0.56
76,1214,0.57
77,6508,1.19
78,5444,1.32
79,5307,0.98
80,3487,1.25
81,4256,0.71
82,6933,0.85
83,6067,0.93
84,7454,0.85
85,231,1.38
86,126,1.0
87,1680,1.28
88,1919,0.97
89,4048,1.39
90,9007,0.66
91,1349,0.56
92,1296,1.08
93,5587,0.67
94,6610,1.11
95,5400,1.35
96,515,1.01
97,1481,1.35
98,3961,0.91
99,9065,1.03
