,prefix,price
0,8447,1.17
1,8929,0.51
2,5996,0.84
3,2047,1.0
4,8217,0.8
5,5517,1.07
6,326,0.53
7,5536,0.78
8,3468,0.84
9,9223,1.35
10,8135,0.99
11,7661,0.56
12,496,1.33
13,1783,0.7
14,3712,0.75
15,5364,0.9
16,6351,0.78
17,3784,1.11
18,2539,1.01
19,5046,0.66
20,3552,1.3
21,4465,1.23
22,5655,1.12
23,8944,0.84
24,943,1.1
25,521,0.66
26,4546,1.32
27,750,1.18
28,2279,1.3
29,3478,0.77
30,7470,1.24
31,7045,0.71
32,6254,0.73
33,457,1.3
34,5193,1.1
35,5711,1.16
36,6004,0.97
37,674,0.79
38,7866,1.23
39,1446,0.55
40,5439,1.13
41,5960,0.64
42,5429,0.76
43,8674,0.99
44,5064,0.63
45,6787,0.62
46,7142,0.68
47,6967,1.22
48,4834,0.56
49,5783,0.98
50,4921,0.57
51,6734,0.59
52,9549,1.01
53,3119,0.82
54,4445,0.67
55,4036,0.95
56,9188,0.66
57,9250,0.75
58,3653,0.7
59,1502,1.05
60,8042,0.76
61,7189,0.88
62,3966,1.05
63,4832,0.7
64,5458,0.85
65,3221,1.19
66,6568,0.75
67,7292,0.94
68,7732,0.67
69,7397,1.09
70,1985,1.3
71,7430,0.7
72,6235,0.92
73,587,0.72
74,4670,1.23
75,9872,1.39
76,8823,0.85
77,2665,0.62
78,1689,1.02
79,815,0.85
80,2384,0.55
81,1967,0.76
82,4098,1.09
83,5440,0.59
84,2181,0.96
85,8215,0.98
86,4283,0.91
87,2912,1.03
88,665,0.53
89,3965,1.34
90,3023,0.96
91,6125,0.7
92,5771,1.18
93,7974,0.72
94,9356,0.72
95,5723,0.95
96,2574,1.05
97,1236,1.16
98,1537,0.84
99,8007,1.13
