,prefix,price
0,896,1.13
1,3478,1.28
2,1012,0.63
3,1215,0.52
4,5859,0.97
5,8304,0.99
6,4867,0.71
7,1684,1.12
8,8163,1.35
9,977,1.13
10,8176,0.7
11,549,0.87
12,3157,1.1
13,8381,1.23
14,8153,0.75
15,891,0.54
16,2274,1.31
17,8635,1.08
18,4882,0.59
19,2871,0.58
20,8661,0.65
21,5961,1.27
22,7636,0.88
23,9038,1.03
24,1813,1.25
25,726,0.98
26,5544,1.12
27,9671,0.79
28,1505,0.91
29,663,1.21
30,942,0.85
31,4061,0.98
32,407,1.23
33,9487,1.29
34,7827,0.73
35,9023,1.25
36,1101,0.74
37,5942,1.29
38,6619,1.22
39,7500,0.95
40,1507,0.84
41,5043,1.26
42,1297,1.27
43,5639,1.16
44,8731,1.3
45,320,0.88
46,198,0.62
47,6795,0.61
48,2993,0.73
49,7381,0.95
50,6053,0.77
51,3304,0.7
52,6865,1.22
53,8532,1.17
54,4328,0.5
55,8314,1.08
56,2351,0.53
57,1490,1.07
58,5384,1.22
59,4265,0.8
60,5821,1.13
61,1444,1.22
62,2709,1.1
63,9009,0.67
64,7710,0.55
65,3991,0.97
66,7738,0.82
67,6740,0.92
68,7537,0.86
69,3619,1.02
70,2581,0.79
71,6549,1.17
72,7224,1.21
73,3586,0.53
74,9181,0.82
75,4009,1.0
76,3499,1.17
77,6029,1.25
78,1426,0.54
79,9571,0.78
80,2410,1.15
81,3405,1.15
82,4205,0.81
83,1552,0.57
84,642,1.07
85,8531,0.54
86,6039,0.54
87,5102,0.67
88,5852,0.69
89,8925,0.51
90,3370,1.18
91,7391,0.85
92,8632,0.7
93,7530,0.69
94,9001,0.54
95,6126,0.51
96,2022,0.71
97,1811,0.58
98,6564,0.52
99,5757,0.98
