,prefix,price
0,7777,1.25
1,5188,0.65
2,3882,0.78
3,9801,0.52
4,5808,0.9
5,8372,1.33
6,3369,0.68
7,2738,0.91
8,4868,1.2
9,1128,0.68
10,9538,0.73
11,4331,1.3
12,228,1.04
13,5191,0.63
14,3335,1.23
15,3780,1.05
16,2148,1.26
17,2009,1.07
18,6915,1.11
19,5644,1.27
20,7135,0.54
21,4285,0.81
22,822,0.97
23,4139,0.58
24,7276,0.61
25,8991,0.95
26,4971,0.73
27,382,1.07
28,2596,0.79
29,4720,0.75
30,8972,1.18
31,3255,0.6
32,7337,1.14
33,1572,0.98
34,7009,0.76
35,7182,0.62
36,9125,0.55
37,7590,0.87
38,9225,1.06
39,8129,0.51
40,4907,1.39
41,1174,0.71
42,770,0.51
43,7857,1.34
44,591,0.65
45,5498,1.3
46,3987,0.76
47,9466,1.21
48,6740,1.13
49,4796,0.57
50,1880,0.58
51,3619,0.97
52,6422,0.71
53,4411,0.79
54,7001,0.64
55,6607,1.02
56,8383,0.89
57,5397,1.29
58,4228,0.94
59,4301,1.05
60,531,0.6
61,2706,0.73
62,3441,0.98
63,2218,0.9
64,7419,1.2
65,4204,1.04
66,5848,0.95
67,3965,1.04
68,2434,0.79
69,948,0.62
70,5515,1.24
71,4277,1.31
72,2303,1.24
73,7196,0.84
74,3395,1.24
75,1147,1.13
76,2074,1.32
77,7427,1.3
78,4664,1.34
79,8106,0.72
80,2846,0.5
81,4245,0.53
82,5408,1.25
83,4141,0.53
84,5519,0.93
85,5041,1.33
86,5555,1.25
87,9484,0.98
88,5838,0.57
89,9270,1.26
90,7686,1.03
91,8171,1.12
92,7993,0.57
93,7620,1.34
94,8734,1.12
95,2406,1.03
96,7982,0.77
97,9603,1.21
98,1012,1.28
99,3611,1.07
