,prefix,price
0,1441,1.01
1,2681,0.9
2,8245,0.83
3,9472,1.28
4,7084,0.9
5,8515,1.25
6,691,0.51
7,7563,1.05
8,6008,0.94
9,2405,1.26
10,5408,0.96
11,2909,0.83
12,4316,0.7
13,7303,0.61
14,1655,0.84
15,1740,0.61
16,6967,1.27
17,3603,1.04
18,1881,0.93
19,9964,0.78
20,8285,1.1
21,9525,0.8
22,762,0.89
23,1372,0.93
24,587,0.75
25,7373,1.12
26,3690,1.24
27,9157,0.98
28,5864,1.04
29,4036,1.39
30,5027,1.11
31,4257,1.28
32,6442,1.02
33,3736,1.05
34,2213,0.54
35,1136,1.36
36,4170,0.8
37,506,1.13
38,6313,1.02
39,7184,1.11
40,644,0.92
41,2261,1.03
42,681,0.77
43,4157,1.02
44,6434,1.32
45,7202,1.16
46,543,0.56
47,6156,0.93
48,4072,0.84
49,1818,1.05
50,7882,0.79
51,1169,1.27
52,6072,0.58
53,9210,1.23
54,3591,0.6
55,7846,1.06
56,3856,1.12
57,8201,0.84
58,6112,0.84
59,3132,1.22
60,6391,0.9
61,5659,1.2
62,7461,0.89
63,509,0.54
64,8191,1.37
65,4597,0.77
66,84,0.84
67,2688,1.38
68,177,1.24
69,5254,1.17
70,2230,0.89
71,5231,1.3
72,4315,0.98
73,237,0.78
74,8909,1.14
75,5037,0.87
76,8863,1.21
77,3566,0.67
78,55,0.84
79,2999,0.54
80,4769,0.63
81,2731,1.01
82,8408,0.98
83,8852,0.99
84,9912,1.16
85,6428,0.77
86,332,1.33
87,1008,0.8
88,2501,0.67
89,4114,0.82
90,971,0.89
91,9945,0.7
92,3735,1.26
93,9571,1.23
94,4290,0.53
95,4055,1.34
96,106,1.39
97,8074,1.23
98,3665,0.61
99,2099,1.36
