,prefix,price
0,7443,1.1
1,1030,1.11
2,49,0.58
3,3555,1.32
4,3285,0.89
5,9132,0.92
6,5415,0.85
7,2813,0.93
8,923,0.87
9,5285,1.13
10,2195,1.3
11,4428,0.85
12,1780,1.01
13,6674,0.89
14,562,0.75
15,7620,0.66
16,6726,0.62
17,2797,0.98
18,1312,0.74
19,2095,0.87
20,7559,0.74
21,4114,0.92
22,5989,1.14
23,1341,0.86
24,5477,1.06
25,6279,1.3
26,900,0.75
27,6409,1.19
28,120,0.69
29,2972,0.86
30,1944,0.67
31,5047,1.12
32,4137,0.62
33,8046,1.09
34,9529,0.69
35,7546,0.82
36,2648,0.89
37,1388,1.16
38,7476,0.61
39,2412,1.17
40,2734,0.58
41,7994,1.25
42,6572,1.15
43,4083,0.87
44,3463,0.58
45,6532,1.18
46,1657,0.95
47,7097,1.04
48,719,0.67
49,1519,0.98
50,2552,0.59
51,4834,0.5
52,3726,0.56
53,4869,1.14
54,5291,0.97
55,7145,1.15
56,9961,0.82
57,2653,1.17
58,886,0.95
59,8726,0.5
60,6565,1.39
61,1191,1.32
62,9762,1.1
63,4165,0.97
64,7118,1.33
65,5167,1.15
66,5016,0.55
67,5766,1.33
68,3659,1.25
69,8932,0.8
70,2851,0.5
71,6781,0.66
72,106,1.22
73,3381,1.35
74,61,1.34
75,8052,0.72
76,9098,0.64
77,8625,0.85
78,3327,0.63
79,3645,1.07
80,6582,1.23
81,6019,0.56
82,5085,0.57
83,1523,0.54
84,6288,0.69
85,6351,1.16
86,926,1.1
87,6983,1.05
88,6791,0.85
89,5459,1.05
90,270,0.69
91,1558,1.09
92,8985,0.64
93,4898,0.73
94,5446,1.22
95,5072,1.27
96,5110,0.59
97,4658,1.11
98,7335,0.51
99,1605,1.17
