,prefix,price
0,3708,0.65
1,9324,0.98
2,8454,0.99
3,2262,0.64
4,2141,1.06
5,7394,0.62
6,7735,1.11
7,1515,1.35
8,6413,0.85
9,2151,1.29
10,7326,1.32
11,2279,1.12
12,7071,0.84
13,6159,0.54
14,1766,0.84
15,8373,0.54
16,3481,1.32
17,4110,1.08
18,3315,1.39
19,1332,0.86
20,8842,0.79
21,9656,1.27
22,2431,1.22
23,4179,1.35
24,2808,1.35
25,4369,0.54
26,3043,0.57
27,4752,1.24
28,3031,0.57
29,789,1.19
30,3347,0.61
31,5850,0.5
32,6654,0.82
33,5066,1.09
34,1572,0.9
35,8536,0.62
36,7873,1.09
37,1498,1.04
38,1918,0.82
39,1118,1.11
40,4071,1.02
41,8050,0.68
42,4615,1.34
43,8984,1.11
44,1099,0.67
45,1046,0.96
46,7979,0.66
47,9549,0.55
48,4553,0.66
49,7602,1.05
50,6209,1.27
51,2347,1.33
52,5483,0.72
53,7306,0.89
54,9568,1.22
55,9926,0.68
56,8462,1.04
57,4349,1.39
58,8849,1.29
59,2961,0.56
60,5035,0.5
61,7947,0.91
62,3872,1.31
63,299,1.11
64,8219,1.14
65,4999,1.01
66,1858,1.19
67,8124,0.63
68,1720,0.87
69,6731,1.21
70,7163,1.24
71,3273,0.76
72,3745,0.51
73,7652,0.89
74,9458,0.66
75,782,1.38
76,2242,0.59
77,4080,0.81
78,346,1.11
79,5429,0.6
80,8326,0.95
81,8774,0.81
82,2932,1.29
83,4973,0.86
84,3854,1.27
85,9545,1.06
86,3179,0.88
87,2727,0.64
88,9693,1.1
89,8588,0.7
90,6207,0.92
91,8580,0.98
92,4334,1.37
93,865,1.27
94,8189,1.29
95,8210,1.39
96,6602,1.06
97,918,1.16
98,8754,1.27
99,9249,0.63
