,prefix,price
0,2058,1.22
1,2042,1.28
2,4862,0.92
3,4620,0.77
4,9762,0.73
5,4750,1.17
6,8306,1.11
7,65,1.28
8,9339,1.36
9,5161,1.25
10,205,0.6
11,3151,0.76
12,6561,0.81
13,7650,1.27
14,2951,0.92
15,3990,0.83
16,6867,0.62
17,5611,0.57
18,8424,0.84
19,1458,0.86
20,461,1.32
21,8831,0.75
22,6706,0.84
23,7249,1.27
24,2094,1.01
25,2255,0.53
26,6247,1.11
27,5997,0.62
28,1231,0.61
29,8389,1.23
30,7237,0.92
31,7433,0.57
32,7150,1.25
33,7278,1.33
34,4622,0.55
35,3464,1.19
36,8075,0.77
37,5489,1.07
38,6480,0.7
39,389,0.84
40,301,0.9
41,2270,1.29
42,6781,1.16
43,7169,0.74
44,4548,1.04
45,1849,1.01
46,5568,0.67
47,824,0.63
48,5693,0.5
49,2641,1.07
50,9139,0.51
51,4200,1.12
52,1826,0.59
53,7838,0.8
54,409,0.51
55,9702,1.3
56,4276,0.72
57,8659,0.87
58,1104,0.6
59,1435,0.9
60,5454,1.24
61,7856,1.06
62,4254,1.28
63,5973,0.77
64,6026,1.07
65,5817,1.0
66,6214,1.09
67,5564,0.56
68,4423,1.23
69,7754,1.07
70,2308,1.01
71,1192,0.52
72,5258,0.74
73,1696,0.76
74,9997,1.13
75,9110,0.85
76,4653,0.87
77,8336,1.22
78,9560,0.62
79,6998,1.22
80,3739,1.24
81,8700,0.93
82,2635,0.84
83,9329,0.65
84,5484,1.09
85,5469,0.62
86,8634,0.55
87,7858,1.16
88,5596,0.96
89,1175,0.88
90,5989,0.53
91,7023,1.25
92,3636,1.08
93,7907,0.6
94,5116,1.14
95,4177,0.51
96,8972,1.33
97,1564,0.9
98,6821,1.07
99,3037,0.77
