,prefix,price
0,531,0.89
1,4662,0.67
2,9694,1.11
3,1625,1.15
4,2044,0.75
5,1995,0.98
6,6450,1.38
7,4559,0.84
8,8734,1.21
9,9513,0.62
10,8445,0.78
11,191,1.24
12,3113,0.59
13,2138,1.25
14,4785,1.2
15,9419,0.69
16,3183,1.12
17,2797,0.67
18,2122,0.55
19,6508,1.05
20,585,0.59
21,4023,1.23
22,9023,0.91
23,7292,0.7
24,6621,1.25
25,1419,0.76
26,7637,1.33
27,2873,0.74
28,9135,0.65
29,3058,0.6
30,8577,0.6
31,2035,0.93
32,8105,1.34
33,4526,0.59
34,682,1.15
35,6211,0.97
36,6688,1.06
37,5528,0.75
38,4275,1.21
39,6838,0.67
40,2927,0.94
41,2789,1.13
42,5887,1.22
43,963,0.83
44,6537,1.24
45,1782,0.83
46,8063,1.23
47,3469,0.56
48,4990,1.17
49,9550,1.24
50,3401,0.86
51,3835,1.31
52,5065,0.6
53,1416,0.68
54,2359,0.65
55,5263,0.71
56,32,1.05
57,5246,0.73
58,1391,1.23
59,3033,1.26
60,9033,0.87
61,9711,1.29
62,2215,0.79
63,8779,0.8
64,7210,0.96
65,3365,0.68
66,8520,0.71
67,5551,1.06
68,5926,1.2
69,4806,0.97
70,982,1.11
71,3172,0.77
72,669,1.34
73,5237,0.84
74,5107,1.3
75,7445,1.27
76,7288,1.22
77,4572,0.61
78,7925,0.54
79,3834,1.03
80,783,1.17
81,2135,0.51
82,3376,0.94
83,5540,0.5
84,1372,0.62
85,922,0.81
86,2599,1.32
87,3953,0.95
88,5906,0.7
89,3566,1.14
90,5636,1.31
91,6669,1.29
92,4006,1.17
93,8423,0.54
94,532,0.7
95,6121,0.7
96,4746,1.38
97,8229,0.75
98,6784,0.8
99,518,0.86
