,prefix,price
0,1163,1.38
1,8269,0.75
2,2455,0.6
3,6488,1.14
4,592,0.76
5,2368,1.2
6,420,0.65
7,5022,1.07
8,2988,1.03
9,9732,0.62
10,5367,1.21
11,3911,1.23
12,1754,1.22
13,1021,1.26
14,581,1.38
15,8775,1.35
16,7825,1.1
17,1542,0.66
18,9952,0.95
19,6106,1.06
20,3560,1.08
21,5520,1.21
22,9040,0.55
23,3623,0.55
24,9355,0.67
25,2605,0.71
26,4371,1.11
27,2755,0.5
28,6305,0.97
29,12,1.06
30,8636,1.03
31,3394,0.74
32,7134,0.52
33,1650,0.84
34,8367,1.35
35,3575,1.23
36,7080,0.52
37,5704,0.74
38,6822,1.03
39,6423,0.8
40,3067,1.02
41,7451,0.83
42,1987,1.31
43,2091,1.38
44,4719,1.31
45,1430,0.79
46,2366,1.23
47,6601,1.01
48,2531,0.53
49,556,1.24
50,7404,0.6
51,487,1.02
52,5437,1.37
53,4487,0.93
54,9937,0.83
55,1198,0.56
56,5396,0.86
57,1602,1.38
58,4662,1.35
59,1485,0.69
60,9266,0.67
61,3986,1.24
62,5832,1.14
63,5073,1.3
64,3859,1.15
65,3019,1.02
66,4150,1.32
67,2724,0.65
68,1629,1.08
69,4885,1.37
70,7726,0.7
71,2143,0.74
72,472,0.61
73,3838,1.35
74,6888,0.77
75,7278,0.52
76,7769,1.07
77,7416,1.02
78,2533,0.73
79,9289,0.73
80,9341,0.6
81,268,0.9
82,9330,0.57
83,3914,1.37
84,4245,1.04
85,2607,1.08
86,4101,1.07
87,3520,1.28
88,1955,0.65
89,9180,1.04
90,2800,0.74
91,2363,1.16
92,8184,0.7
93,8282,0.59
94,7285,0.86
95,2613,0.84
96,7803,1.02
97,1033,1.14
98,5428,1.27
99,3672,1.22
