,prefix,price
0,3614,0.67
1,4888,0.73
2,8282,1.15
3,8911,1.33
4,3166,0.64
5,376,0.81
6,1256,1.36
7,3336,0.96
8,310,0.55
9,1050,1.37
10,5601,1.19
11,5162,0.72
12,9719,1.08
13,5185,0.51
14,8933,1.36
15,5258,1.22
16,3938,1.38
17,9338,1.14
18,94,1.02
19,6857,0.96
20,2152,0.85
21,9601,1.02
22,6893,1.07
23,8824,1.18
24,1005,1.32
25,1990,1.38
26,7323,1.05
27,4610,0.75
28,4886,1.09
29,5100,1.16
30,2874,0.94
31,7115,1.24
32,2883,1.35
33,4111,0.76
34,5829,1.05
35,3500,1.32
36,4034,1.14
37,8707,1.32
38,1691,0.98
39,5920,0.53
40,569,0.93
41,342,1.08
42,9588,0.51
43,3539,0.99
44,6637,1.25
45,7646,0.99
46,8840,0.89
47,5269,1.17
48,7565,1.13
49,3399,0.64
50,2423,0.82
51,6558,0.99
52,9743,1.06
53,6668,1.25
54,9746,0.76
55,9009,1.19
56,3490,0.69
57,552,0.55
58,4569,1.35
59,2466,0.76
60,3666,0.96
61,426,0.56
62,3591,1.39
63,6662,0.58
64,114,0.98
65,2959,0.84
66,5181,1.1
67,5909,1.12
68,8790,0.89
69,6009,0.98
70,9844,0.95
71,8628,1.16
72,5830,0.71
73,2589,0.88
74,3777,1.11
75,8663,1.1
76,9349,1.33
77,3059,1.17
78,4237,0.53
79,2294,0.98
80,4667,0.67
81,4730,0.71
82,9752,1.33
83,594,0.82
84,679,1.24
85,9403,1.33
86,6388,0.6
87,5698,0.64
88,9134,0.93
89,4499,1.23
90,3246,0.96
91,9237,1.09
92,3654,1.25
93,2979,0.9
94,9232,1.27
95,5621,0.75
96,7597,1.33
97,8368,1.35
98,9917,0.79
99,2012,1.1
