,prefix,price
0,9149,0.65
1,4804,0.86
2,9230,1.35
3,6988,1.31
4,1190,0.9
5,9556,1.26
6,4536,0.54
7,2720,1.08
8,6176,0.92
9,8778,1.1
10,8849,1.01
11,1648,0.56
12,6717,1.24
13,3855,0.61
14,4100,1.06
15,9455,1.19
16,8486,0.51
17,6653,1.1
18,225,0.59
19,4379,0.52
20,202,0.82
21,7352,1.2
22,8464,0.78
23,6127,0.94
24,9754,0.65
25,9888,0.77
26,1753,1.23
27,8376,1.15
28,5011,0.89
29,3905,0.84
30,4861,0.7
31,9855,0.51
32,8185,0.79
33,7168,1.01
34,5383,1.06
35,4189,1.26
36,346,0.81
37,4074,0.84
38,7396,0.5
39,6212,0.75
40,4548,1.06
41,7214,1.29
42,557,0.61
43,2646,0.6
44,9658,1.16
45,2509,1.3
46,4555,1.25
47,6536,0.56
48,4856,1.02
49,9037,1.0
50,2990,1.23
51,5456,0.71
52,7822,0.69
53,6546,1.09
54,3624,1.34
55,1795,1.2
56,8953,1.23
57,9245,0.87
58,7297,1.39
59,2524,0.76
60,7632,1.12
61,4106,0.66
62,4393,1.17
63,1890,1.16
64,3238,0.89
65,4482,0.59
66,8756,0.85
67,3527,1.19
68,9234,1.24
69,4204,1.36
70,9445,0.98
71,5956,1.21
72,2653,1.12
73,9494,0.61
74,5856,1.28
75,7597,1.21
76,3209,0.6
77,3184,1.24
78,5133,0.91
79,7839,1.27
80,5130,0.64
81,936,1.37
82,5092,0.74
83,6201,0.6
84,1727,0.89
85,2584,1.33
86,5504,0.99
87,8735,1.16
88,7382,0.75
89,1266,0.78
90,6389,0.89
91,7225,0.5
92,8153,0.63
93,3682,1.23
94,4266,0.92
95,6845,1.27
96,7472,0.63
97,7321,1.07
98,6368,1.15
99,8843,1.17
