,prefix,price
0,9442,0.97
1,2884,0.69
2,2693,1.04
3,9818,1.32
4,5846,0.55
5,1918,0.84
6,763,1.04
7,4337,1.27
8,9448,0.6
9,7199,1.02
10,6108,1.38
11,391,0.76
12,8233,1.2
13,1555,1.01
14,108,1.34
15,3678,1.14
16,9027,0.84
17,2511,0.7
18,5491,1.08
19,1430,0.88
20,7898,1.0
21,1978,1.07
22,5124,1.04
23,8121,0.75
24,48,1.12
25,4660,0.58
26,4928,0.53
27,1836,1.18
28,4154,1.28
29,1228,0.97
30,4706,0.98
31,2148,0.72
32,3584,0.93
33,8664,0.56
34,3309,0.91
35,4836,1.18
36,5801,1.15
37,2722,1.09
38,4579,0.54
39,1643,0.5
40,188,0.94
41,3771,0.69
42,6048,0.89
43,5741,0.83
44,9468,1.08
45,6294,0.8
46,7467,0.71
47,3122,1.37
48,9340,1.12
49,721,1.18
50,9222,1.18
51,5554,0.61
52,8994,1.3
53,2115,1.29
54,8759,1.29
55,8811,0.53
56,3175,1.36
57,2953,1.27
58,7045,0.77
59,8023,1.04
60,8377,1.02
61,8352,1.36
62,1906,0.59
63,4989,1.04
64,2034,1.36
65,8525,0.95
66,3431,0.69
67,8684,1.2
68,2520,0.93
69,1272,0.64
70,513,1.1
71,2468,0.76
72,3384,1.33
73,4156,0.63
74,5211,0.95
75,6192,1.37
76,3017,0.84
77,2466,0.61
78,5939,1.29
79,3117,0.54
80,720,0.64
81,2840,0.84
82,3067,0.86
83,5932,0.74
84,9815,1.31
85,3343,0.81
86,452,1.12
87,273,0.96
88,2948,1.36
89,1753,1.23
90,558,1.31
91,400,1.18
92,2030,0.99
93,9247,1.04
94,5613,1.33
95,9103,0.74
96,1953,0.67
97,590,0.77
98,9605,0.57
99,4140,1.28
