,prefix,price
0,8063,1.32
1,1324,0.84
2,2357,0.89
3,1130,1.27
4,3682,1.36
5,4277,1.15
6,5211,1.28
7,335,0.64
8,5539,1.01
9,2800,1.38
10,8402,0.89
11,390,0.92
12,9517,0.64
13,7281,0.99
14,4407,1.24
15,8608,1.35
16,456,1.16
17,5556,0.74
18,3452,0.63
19,9092,1.21
20,7635,1.06
21,4833,1.05
22,8923,1.34
23,865,0.89
24,8788,1.24
25,332,0.65
26,6593,0.93
27,4413,0.53
28,1197,1.22
29,2759,0.8
30,6222,0.58
31,1964,1.15
32,1728,0.79
33,4235,1.07
34,2230,0.5
35,9520,0.98
36,1388,1.07
37,1311,1.14
38,3199,0.84
39,3311,0.71
40,6586,0.83
41,4270,1.21
42,4012,0.96
43,3374,0.7
44,7480,0.54
45,4671,1.34
46,7507,0.61
47,6345,1.24
48,2636,0.88
49,7465,0.57
50,7247,0.81
51,8105,0.95
52,2135,0.72
53,7633,0.65
54,4264,1.36
55,8213,1.29
56,3218,0.9
57,6859,0.69
58,6823,0.57
59,6505,0.53
60,6984,0.83
61,3773,0.86
62,3203,1.14
63,5814,0.86
64,566,0.87
65,9080,1.34
66,5306,1.39
67,4696,1.38
68,8635,0.54
69,9166,1.34
70,5873,0.53
71,4660,0.54
72,3473,0.94
73,6493,1.2
74,5107,0.71
75,7441,0.75
76,3526,0.79
77,5515,1.0
78,4300,1.38
79,4811,1.39
80,4572,1.19
81,6155,0.99
82,8611,1.01
83,8443,0.71
84,2006,1.39
85,881,1.18
86,4601,0.92
87,669,1.3
88,5719,1.2
89,1706,0.71
90,3494,1.29
91,1662,1.04
92,6664,1.0
93,7974,0.57
94,7337,0.69
95,4866,1.25
96,6722,0.85
97,5945,1.37
98,7794,0.57
99,530,0.89
