,prefix,price
0,9137,1.2
1,5964,1.01
2,7077,0.72
3,449,1.27
4,7558,0.6
5,6959,0.61
6,2011,1.08
7,9009,1.11
8,7672,0.97
9,7886,0.69
10,1467,0.72
11,7273,0.62
12,1596,1.21
13,8897,0.68
14,1227,1.13
15,8659,0.89
16,7817,0.96
17,4317,1.21
18,4884,0.89
19,7360,1.39
20,7172,0.65
21,1209,0.57
22,9515,0.82
23,9003,1.2
24,4318,1.21
25,868,1.34
26,7610,0.94
27,4776,1.32
28,549,0.62
29,2901,0.76
30,3885,1.29
31,9873,0.64
32,8960,0.67
33,9955,1.06
34,6638,1.06
35,9029,0.69
36,4476,0.86
37,7561,0.83
38,9002,0.63
39,2781,1.35
40,7488,0.99
41,4337,0.5
42,5975,0.86
43,6199,0.91
44,6319,0.87
45,2783,1.1
46,4896,1.23
47,6628,1.11
48,747,0.7
49,8549,1.37
50,6865,0.93
51,4156,0.57
52,8282,0.8
53,498,0.68
54,4338,0.92
55,8760,0.84
56,1725,1.15
57,6,0.63
58,3849,0.55
59,634,1.04
60,7052,0.67
61,8024,0.52
62,6832,1.06
63,5050,0.75
64,423,0.73
65,6951,0.54
66,1213,0.76
67,1199,0.88
68,8875,0.55
69,2450,0.85
70,1163,1.07
71,4573,1.04
72,7487,1.03
73,2642,0.77
74,8243,0.84
75,9646,1.35
76,8198,0.51
77,4093,0.62
78,6903,0.86
79,9195,0.56
80,7427,0.93
81,8003,0.6
82,923,1.32
83,6238,0.5
84,1979,0.5
85,4196,0.7
86,369,1.26
87,9295,0.54
88,4429,0.97
89,4471,0.53
90,1881,0.9
91,6633,0.88
92,1149,1.0
93,5732,0.93
94,9567,0.77
95,4548,1.37
96,8821,1.25
97,275,1.22
98,7370,0.99
99,9417,1.01
