,prefix,price
0,4339,1.22
1,9605,0.63
2,5081,0.9
3,3044,0.89
4,3603,1.04
5,2904,1.28
6,939,0.55
7,230,0.98
8,2337,1.22
9,8507,0.93
10,8788,1.35
11,5637,0.65
12,2849,1.19
13,2846,1.05
14,6569,1.34
15,8977,0.86
16,4890,0.94
17,1016,0.61
18,5123,0.94
19,1030,0.62
20,8809,1.36
21,845,0.93
22,5373,0.62
23,2830,1.0
24,9859,0.75
25,9116,1.08
26,8104,0.9
27,8739,1.21
28,2107,1.11
29,441,1.31
30,6497,0.93
31,6454,0.96
32,2277,0.82
33,844,1.39
34,3889,0.71
35,3799,1.29
36,6657,1.1
37,1326,0.69
38,7569,0.61
39,9353,1.14
40,2923,1.04
41,3091,1.01
42,695,1.2
43,6627,1.14
44,3583,0.54
45,4435,0.75
46,7193,1.37
47,5630,1.23
48,5157,0.77
49,5403,0.92
50,9590,1.39
51,60,0.96
52,3878,0.54
53,7786,1.1
54,4196,0.69
55,8653,0.89
56,3710,1.21
57,8371,1.05
58,8245,1.03
59,2054,0.82
60,181,0.55
61,5218,1.2
62,8883,0.95
63,3587,0.59
64,1673,0.76
65,7867,1.08
66,7980,1.03
67,2685,0.78
68,9220,0.74
69,7921,1.38
70,3973,1.19
71,5226,1.11
72,1229,1.05
73,5850,0.79
74,1063,0.97
75,8471,1.06
76,6430,1.19
77,2407,0.74
78,666,1.18
79,468,0.62
80,1172,1.24
81,4497,0.86
82,2154,0.52
83,17,0.72
84,9548,0.64
85,9447,0.67
86,4117,1.13
87,3873,1.04
88,4037,0.94
89,6700,0.63
90,7292,0.57
91,3389,1.21
92,563,0.53
93,5025,1.04
94,6824,1.0
95,3647,1.17
96,3624,1.02
97,3024,0.53
98,5760,0.99
99,6775,0.83
