,prefix,price
0,7661,0.56
1,1748,0.83
2,9533,0.71
3,9890,1.22
4,3802,1.33
5,1901,0.66
6,2224,1.2
7,9471,1.25
8,5281,0.88
9,1313,1.06
10,7712,0.91
11,2667,0.87
12,2786,0.68
13,244,1.17
14,3977,1.12
15,2636,0.7
16,5775,0.89
17,370,0.6
18,5694,0.77
19,3415,0.73
20,7983,0.91
21,9744,0.69
22,4034,1.13
23,7285,1.27
24,484,1.06
25,8719,0.8
26,9416,0.5
27,5711,0.6
28,6374,1.32
29,3670,0.62
30,1671,0.65
31,2705,0.5
32,1397,0.6
33,6087,1.37
34,6172,0.58
35,8966,0.86
36,3939,1.05
37,1865,1.37
38,7461,0.94
39,1036,0.92
40,2678,1.35
41,393,0.77
42,6912,1.17
43,6849,0.68
44,2487,0.74
45,2374,0.9
46,347,0.66
47,2987,1.02
48,8236,0.97
49,8380,0.74
50,5106,1.37
51,8661,0.66
52,1421,0.79
53,4032,0.75
54,4570,1.27
55,6870,0.51
56,6510,0.77
57,2026,1.13
58,4743,1.36
59,6740,0.52
60,8840,1.22
61,617,1.25
62,6769,0.74
63,4442,1.07
64,4449,1.15
65,7412,1.33
66,4394,0.79
67,5762,1.14
68,9935,0.97
69,2547,0.79
70,3846,0.74
71,8398,1.03
72,3581,0.6
73,354,1.34
74,8784,1.1
75,8098,0.75
76,815,0.83
77,7617,0.68
78,5387,0.94
79,6974,1.13
80,7876,0.53
81,4555,0.59
82,5742,1.16
83,7953,1.13
84,8350,0.76
85,7442,0.79
86,7406,1.37
87,6253,1.23
88,478,1.0
89,3662,1.33
90,3867,0.93
91,8242,1.24
92,7599,0.97
93,3175,0.73
94,5885,1.05
95,6065,1.02
96,7313,1.06
97,1182,1.19
98,5378,0.57
99,5739,0.87
