,prefix,price
0,9280,1.22
1,1117,1.21
2,2294,0.54
3,2764,0.56
4,4868,1.28
5,1022,0.56
6,8351,1.21
7,1917,0.89
8,7859,0.64
9,11,0.78
10,7080,0.93
11,9154,0.86
12,3393,1.32
13,4544,1.17
14,3219,0.52
15,8438,1.06
16,9161,1.21
17,1966,0.65
18,8922,0.9
19,9791,0.62
20,1352,0.96
21,5097,0.7
22,8753,1.06
23,4232,0.9
24,513,0.76
25,3272,1.29
26,8550,0.85
27,2587,1.3
28,7889,0.89
29,5418,1.37
30,788,0.55
31,5137,0.74
32,8862,0.98
33,107,1.01
34,4912,0.81
35,4564,1.11
36,5162,1.19
37,4351,1.26
38,843,0.8
39,3963,0.56
40,8643,0.82
41,7109,1.06
42,3581,0.56
43,498,0.79
44,9723,0.73
45,7436,1.12
46,2063,0.59
47,5713,1.04
48,3381,0.61
49,6513,1.35
50,2075,0.97
51,5908,0.84
52,8824,0.86
53,7483,0.99
54,7350,0.74
55,8804,1.24
56,4906,1.05
57,3020,0.79
58,4901,1.25
59,8507,1.06
60,1292,0.9
61,370,0.93
62,5047,0.73
63,9766,0.71
64,8568,1.13
65,7995,0.53
66,6000,0.86
67,311,0.51
68,9763,1.36
69,6653,0.97
70,5522,1.31
71,3734,0.55
72,1296,0.59
73,6651,1.14
74,2582,0.93
75,3562,1.28
76,7246,0.98
77,569,1.2
78,4945,1.2
79,4650,0.52
80,2717,1.35
81,2068,0.7
82,2312,0.67
83,77,1.2
84,4646,0.86
85,2442,1.26
86,925,0.5
87,923,1.36
88,5253,0.85
89,2696,1.16
90,9544,1.13
91,3545,0.73
92,5329,1.15
93,8015,1.14
94,297,0.57
95,866,0.69
96,6727,1.02
97,7561,0.7
98,9833,1.14
99,3869,1.06
