,prefix,price
0,5954,0.78
1,5875,0.86
2,1105,0.98
3,9996,0.8
4,8222,0.67
5,6683,0.86
6,9670,0.94
7,5562,0.68
8,7406,1.29
9,8123,0.65
10,2953,0.96
11,4646,1.33
12,1569,1.02
13,899,1.18
14,1152,0.8
15,6101,1.37
16,6643,0.62
17,9933,1.06
18,6632,0.59
19,3001,0.77
20,3226,0.55
21,9422,1.09
22,4807,1.02
23,1165,0.53
24,84,1.05
25,8618,0.94
26,6560,0.71
27,3251,1.05
28,1466,1.01
29,4999,0.82
30,7945,0.77
31,4746,1.22
32,4078,1.0
33,9029,0.58
34,8923,0.67
35,5276,0.7
36,6528,0.71
37,2844,0.99
38,4492,1.02
39,2866,1.15
40,7169,1.32
41,566,0.71
42,5299,0.66
43,2370,0.85
44,8099,1.34
45,3880,0.71
46,9719,0.74
47,4144,0.8
48,8762,0.91
49,1062,1.39
50,332,1.03
51,2700,0.85
52,9141,0.63
53,8294,1.19
54,7375,1.04
55,8969,1.0
56,2482,0.59
57,3144,0.65
58,8248,1.09
59,9497,1.24
60,5715,0.84
61,792,1.29
62,1739,1.03
63,9682,1.24
64,8594,0.78
65,404,1.08
66,4097,1.1
67,976,0.94
68,9714,0.96
69,4642,1.09
70,2814,1.13
71,4124,0.77
72,1701,0.81
73,8415,0.75
74,4299,0.86
75,7758,1.01
76,9474,1.02
77,8260,0.52
78,6430,0.95
79,9605,0.59
80,5947,0.52
81,8310,1.18
82,7354,0.86
83,4408,1.37
84,5420,1.28
85,6601,0.62
86,3729,0.77
87,8727,1.1
88,3409,1.08
89,1979,0.61
90,8856,1.16
91,4015,0.85
92,3629,1.15
93,1203,0.84
94,9446,1.06
95,6826,1.36
96,8714,1.01
97,2929,0.5
98,3827,0.78
99,7581,1.28
