,prefix,price
0,5772,1.04
1,6561,1.07
2,6489,1.33
3,5324,0.96
4,1494,1.26
5,4316,1.13
6,4943,1.07
7,4290,0.67
8,3480,0.53
9,3235,1.25
10,3159,0.59
11,3399,1.08
12,8594,0.89
13,257,0.91
14,6878,1.11
15,9227,0.8
16,2327,0.53
17,4706,0.67
18,3063,0.61
19,2276,0.82
20,6693,1.36
21,5817,1.29
22,9388,0.78
23,8056,1.13
24,2674,0.67
25,6026,0.94
26,7052,0.97
27,4074,0.56
28,2082,1.12
29,2393,0.88
30,8386,0.91
31,1422,0.72
32,2090,1.1
33,2661,0.57
34,2115,1.27
35,5727,1.34
36,632,1.25
37,4727,1.13
38,5550,0.63
39,9472,1.22
40,2949,0.51
41,9082,0.84
42,8456,0.88
43,4139,0.93
44,9844,1.19
45,7721,1.18
46,4944,1.11
47,6008,1.22
48,5683,0.94
49,5713,1.04
50,6398,0.6
51,1795,0.66
52,7756,1.15
53,7345,1.03
54,778,1.17
55,6555,0.98
56,2666,0.83
57,7760,1.3
58,6935,1.33
59,3545,1.34
60,4101,1.18
61,551,1.05
62,4551,1.0
63,9302,0.92
64,2915,0.59
65,5574,0.72
66,6092,1.06
67,6945,0.62
68,2145,0.76
69,4774,0.91
70,5508,1.18
71,1137,1.05
72,7771,1.05
73,9566,1.12
74,8551,0.72
75,5969,0.63
76,2463,0.55
77,7249,1.05
78,2741,1.33
79,8771,1.17
80,3737,0.87
81,5022,1.12
82,2650,1.33
83,7392,1.08
84,5666,0.83
85,5689,0.5
86,9096,0.55
87,7629,1.11
88,1506,0.63
89,6205,1.16
90,6499,0.91
91,367,1.01
92,2024,0.54
93,5413,0.73
94,2347,0.58
95,3895,0.93
96,3459,0.98
97,508,1.36
98,3207,0.96
99,6559,0.63
