,prefix,price
0,1841,0.69
1,5964,0.71
2,55,1.16
3,6265,0.54
4,6642,0.75
5,9497,1.21
6,9731,0.54
7,4442,0.96
8,7377,1.03
9,3541,1.15
10,1040,1.1
11,9770,1.13
12,1929,1.16
13,3716,1.01
14,8640,1.32
15,8661,1.14
16,611,0.63
17,2552,0.5
18,7935,1.09
19,7958,0.8
20,6749,0.64
21,8195,0.95
22,2489,1.36
23,1693,0.68
24,7430,0.92
25,6334,1.35
26,9133,1.14
27,5855,0.8
28,3855,0.5
29,7385,0.57
30,6511,1.34
31,4366,0.62
32,2117,0.85
33,3407,0.85
34,9512,0.69
35,5717,1.08
36,5517,0.53
37,2357,0.89
38,5711,0.63
39,208,1.02
40,4316,0.89
41,2442,1.34
42,1366,1.26
43,3925,0.66
44,2836,1.1
45,3914,1.12
46,3235,1.01
47,8359,1.26
48,1001,0.75
49,5887,0.8
50,7148,0.73
51,3462,0.89
52,7488,0.64
53,1036,0.5
54,5322,1.26
55,9603,0.83
56,2935,0.9
57,454,1.38
58,635,0.79
59,106,0.73
60,6641,1.24
61,3451,0.57
62,2345,1.12
63,8483,0.7
64,9812,0.55
65,9441,0.75
66,6224,1.18
67,4725,0.68
68,473,1.19
69,5395,0.81
70,559,0.6
71,4959,0.84
72,1566,0.93
73,3262,1.25
74,7010,1.08
75,5058,1.31
76,4280,0.56
77,9389,1.22
78,9369,1.26
79,8972,1.32
80,9444,0.66
81,4276,1.05
82,5883,0.56
83,4131,0.51
84,5338,0.69
85,707,1.12
86,9505,0.53
87,6867,0.54
88,406,1.22
89,1969,1.18
90,7259,0.91
91,4661,0.8
92,9625,1.28
93,832,0.56
94,41,1.03
95,3281,0.58
96,6647,0.66
97,8094,0.64
98,6802,0.67
99,1389,0.93
