,prefix,price
0,4242,0.53
1,69,0.97
2,7577,0.62
3,7495,1.38
4,7966,1.31
5,1661,1.07
6,3369,0.72
7,5458,1.33
8,6446,1.21
9,1827,0.72
10,4363,1.11
11,8656,0.82
12,7616,1.39
13,602,1.06
14,9503,1.35
15,4445,1.01
16,4860,1.3
17,9684,1.21
18,292,0.67
19,3002,0.84
20,6530,0.85
21,8381,1.19
22,8442,0.76
23,6433,0.84
24,8120,1.26
25,8379,1.03
26,1193,0.8
27,6188,1.13
28,9831,0.75
29,1886,1.17
30,800,1.07
31,617,0.9
32,6122,0.57
33,3070,1.29
34,2488,0.57
35,9941,1.24
36,1495,1.25
37,959,0.87
38,9007,1.02
39,2587,0.88
40,1756,0.58
41,6391,0.75
42,411,0.58
43,3669,1.03
44,4443,1.34
45,2968,0.73
46,139,0.7
47,5412,0.5
48,1846,1.29
49,4107,0.52
50,5943,0.63
51,9417,0.9
52,9033,0.75
53,8958,1.07
54,2481,0.75
55,8608,0.86
56,3775,0.55
57,6936,1.27
58,3177,1.25
59,9078,0.94
60,8596,0.96
61,5291,0.68
62,3791,0.93
63,5125,1.26
64,49,1.05
65,9412,1.31
66,5976,1.22
67,7905,0.85
68,9524,1.13
69,657,0.63
70,8823,0.51
71,1065,0.55
72,1539,1.29
73,624,0.63
74,6082,0.83
75,5547,1.37
76,3842,1.03
77,6460,1.07
78,7679,1.11
79,1939,0.96
80,519,1.24
81,2907,0.53
82,506,0.65
83,7662,0.86
84,9329,0.5
85,5778,1.19
86,3869,1.13
87,3955,0.87
88,8791,1.1
89,1920,0.68
90,6742,0.93
91,5324,1.05
92,8991,1.27
93,7321,1.16
94,6746,0.56
95,3792,0.55
96,5410,0.99
97,9156,0.83
98,2027,0.65
99,534,0.52
